{
  "name": "ceva",
  "description": "ceva",
  "descriptor": {
    "BACK_OFFICE_API": {
      "descriptor": "application {\n    config {\n        baseName ceva\n        packageName com.tremend.ceva\n        languages [en]\n        applicationType monolith\n        buildTool gradle\n        clientFramework react\n        authenticationType jwt\n        databaseType sql\n        devDatabaseType postgresql\n        prodDatabaseType postgresql\n        enableHibernateCache false\n        cacheProvider ehcache\n    }\n    entities *\n}\n\npaginate * with pagination\nfilter all\ndto all with mapstruct\nservice all with serviceClass\nentity Sms {\n    phoneNumber String\n    body String\n    status SmsStatus \n}\nenum SmsStatus {\n    SUCCESS\n    FAILED\n    PENDING\n}\nrelationship ManyToOne {\n    Sms{user} to User{sms}\n}\n\n"
    },
    "BACK_OFFICE_UI": {
      "descriptor": "application {\n    config {\n        baseName ceva\n        packageName com.tremend.ceva\n        languages [en]\n        applicationType monolith\n        buildTool gradle\n        clientFramework react\n        authenticationType jwt\n        databaseType sql\n        devDatabaseType postgresql\n        prodDatabaseType postgresql\n        enableHibernateCache false\n        cacheProvider ehcache\n    }\n    entities *\n}\n\npaginate * with pagination\nfilter all\ndto all with mapstruct\nservice all with serviceClass\nentity Sms {\n    phoneNumber String\n    body String\n    status SmsStatus \n}\nenum SmsStatus {\n    SUCCESS\n    FAILED\n    PENDING\n}\nrelationship ManyToOne {\n    Sms{user} to User{sms}\n}\n\n"
    },
    "MOBILE_APPS": {
      "appName": "ceva",
      "baseURL": "http://ceva-backoffice-api.taf-app.tremend.ro/api/",
      "modules": [],
      "navigation": "bottom-tabs"
    }
  },
  "supportedModuleTypes": [],
  "additionalSettings": {
    "packageName": "com.tremend.ceva"
  },
  "customCode": {
    "BACK_OFFICE_API": [
      {
        "name": "taf-sms-server-support",
        "parameters": {
          "provider": "Twilio"
        }
      }
    ],
    "BACK_OFFICE_UI": [
      {
        "name": "taf-sms-bo-ui",
        "parameters": {
          "provider": "Twilio"
        }
      }
    ],
    "MOBILE_APPS": []
  }
}
